id;ten
1;Nhóm do người lao động và người sử dụng lao động đóng
2;Nhóm do cơ quan bảo hiểm xã hội đóng
3;Nhóm do ngân sách nhà nước đóng
4;Nhóm do ngân sách nhà nước hỗ trợ mức đóng
5;Nhóm tham gia bảo hiểm y tế theo hộ gia đình
6;Nhóm do người sử dụng lao động đóng
