ID;CAP;GUESS_PHRASE;TEN;TEN_KHONG_DAU;QUAN_HUYEN_ID
28249;Phường;5;Phường 5;5;815
28252;Phường;4;Phường 4;4;815
28255;Phường;7;Phường 7;7;815
28258;Phường;3;Phường 3;3;815
28261;Phường;1;Phường 1;1;815
28264;Phường;2;Phường 2;2;815
28267;Phường;8;Phường 8;8;815
28270;Phường;6;Phường 6;6;815
28273;Phường;9;Phường 9;9;815
28276;Phường;10;Phường 10;10;815
28279;Phường;tanlong;Phường Tân Long;tan long;815
28282;Xã;daothanh;Xã Đạo Thạnh;dao thanh;815
28285;Xã;trungan;Xã Trung An;trung an;815
28288;Xã;myphong;Xã Mỹ Phong;my phong;815
28291;Xã;tanmychanh;Xã Tân Mỹ Chánh;tan my chanh;815
28567;Xã;phuocthanh;Xã Phước Thạnh;phuoc thanh;815
28591;Xã;thoison;Xã Thới Sơn;thoi son;815
28294;Phường;3;Phường 3;3;816
28297;Phường;2;Phường 2;2;816
28300;Phường;4;Phường 4;4;816
28303;Phường;1;Phường 1;1;816
28306;Phường;5;Phường 5;5;816
28309;Xã;longhung;Xã Long Hưng;long hung;816
28312;Xã;longthuan;Xã Long Thuận;long thuan;816
28315;Xã;longchanh;Xã Long Chánh;long chanh;816
28318;Xã;longhoa;Xã Long Hòa;long hoa;816
28708;Xã;binhdong;Xã Bình Đông;binh dong;816
28717;Xã;binhxuan;Xã Bình Xuân;binh xuan;816
28729;Xã;tantrung;Xã Tân Trung;tan trung;816
28435;Phường;1;Phường 1;1;817
28436;Phường;2;Phường 2;2;817
28437;Phường;3;Phường 3;3;817
28439;Phường;4;Phường 4;4;817
28440;Phường;5;Phường 5;5;817
28447;Xã;myphuoctay;Xã Mỹ Phước Tây;my phuoc tay;817
28450;Xã;myhanhdong;Xã Mỹ Hạnh Đông;my hanh dong;817
28453;Xã;myhanhtrung;Xã Mỹ Hạnh Trung;my hanh trung;817
28459;Xã;tanphu;Xã Tân Phú;tan phu;817
28462;Xã;tanbinh;Xã Tân Bình;tan binh;817
28468;Xã;tanhoi;Xã Tân Hội;tan hoi;817
28474;Phường;nhimy;Phường Nhị Mỹ;nhi my;817
28477;Xã;nhiquy;Xã Nhị Quý;nhi quy;817
28480;Xã;thanhhoa;Xã Thanh Hòa;thanh hoa;817
28483;Xã;phuquy;Xã Phú Quý;phu quy;817
28486;Xã;longkhanh;Xã Long Khánh;long khanh;817
28321;Thị trấn;myphuoc;Thị trấn Mỹ Phước;my phuoc;818
28324;Xã;tanhoadong;Xã Tân Hòa Đông;tan hoa dong;818
28327;Xã;thanhtan;Xã Thạnh Tân;thanh tan;818
28330;Xã;thanhmy;Xã Thạnh Mỹ;thanh my;818
28333;Xã;thanhhoa;Xã Thạnh Hoà;thanh hoa;818
28336;Xã;phumy;Xã Phú Mỹ;phu my;818
28339;Xã;tanhoathanh;Xã Tân Hòa Thành;tan hoa thanh;818
28342;Xã;hungthanh;Xã Hưng Thạnh;hung thanh;818
28345;Xã;tanlap1;Xã Tân Lập 1;tan lap 1;818
28348;Xã;tanhoatay;Xã Tân Hòa Tây;tan hoa tay;818
28354;Xã;tanlap2;Xã Tân Lập 2;tan lap 2;818
28357;Xã;phuoclap;Xã Phước Lập;phuoc lap;818
28360;Thị trấn;caibe;Thị trấn Cái Bè;cai be;819
28363;Xã;haumybacb;Xã Hậu Mỹ Bắc B;hau my bac b;819
28366;Xã;haumybaca;Xã Hậu Mỹ Bắc A;hau my bac a;819
28369;Xã;mytrung;Xã Mỹ Trung;my trung;819
28372;Xã;haumytrinh;Xã Hậu Mỹ Trinh;hau my trinh;819
28375;Xã;haumyphu;Xã Hậu Mỹ Phú;hau my phu;819
28378;Xã;mytan;Xã Mỹ Tân;my tan;819
28381;Xã;myloib;Xã Mỹ Lợi B;my loi b;819
28384;Xã;thientrung;Xã Thiện Trung;thien trung;819
28387;Xã;myhoi;Xã Mỹ Hội;my hoi;819
28390;Xã;ancu;Xã An Cư;an cu;819
28393;Xã;hauthanh;Xã Hậu Thành;hau thanh;819
28396;Xã;myloia;Xã Mỹ Lợi A;my loi a;819
28399;Xã;hoakhanh;Xã Hòa Khánh;hoa khanh;819
28402;Xã;thientri;Xã Thiện Trí;thien tri;819
28405;Xã;myducdong;Xã Mỹ Đức Đông;my duc dong;819
28408;Xã;myductay;Xã Mỹ Đức Tây;my duc tay;819
28411;Xã;donghoahiep;Xã Đông Hòa Hiệp;dong hoa hiep;819
28414;Xã;anthaidong;Xã An Thái Đông;an thai dong;819
28417;Xã;tanhung;Xã Tân Hưng;tan hung;819
28420;Xã;myluong;Xã Mỹ Lương;my luong;819
28423;Xã;tanthanh;Xã Tân Thanh;tan thanh;819
28426;Xã;anthaitrung;Xã An Thái Trung;an thai trung;819
28429;Xã;anhuu;Xã An Hữu;an huu;819
28432;Xã;hoahung;Xã Hòa Hưng;hoa hung;819
28438;Xã;thanhloc;Xã Thạnh Lộc;thanh loc;820
28441;Xã;mythanhbac;Xã Mỹ Thành Bắc;my thanh bac;820
28444;Xã;phucuong;Xã Phú Cường;phu cuong;820
28456;Xã;mythanhnam;Xã Mỹ Thành Nam;my thanh nam;820
28465;Xã;phunhuan;Xã Phú Nhuận;phu nhuan;820
28471;Xã;binhphu;Xã Bình Phú;binh phu;820
28489;Xã;camson;Xã Cẩm Sơn;cam son;820
28492;Xã;phuan;Xã Phú An;phu an;820
28495;Xã;mylong;Xã Mỹ Long;my long;820
28498;Xã;longtien;Xã Long Tiên;long tien;820
28501;Xã;hiepduc;Xã Hiệp Đức;hiep duc;820
28504;Xã;longtrung;Xã Long Trung;long trung;820
28507;Xã;hoixuan;Xã Hội Xuân;hoi xuan;820
28510;Xã;tanphong;Xã Tân Phong;tan phong;820
28513;Xã;tambinh;Xã Tam Bình;tam binh;820
28516;Xã;nguhiep;Xã Ngũ Hiệp;ngu hiep;820
28519;Thị trấn;tanhiep;Thị trấn Tân Hiệp;tan hiep;821
28522;Xã;tanhoidong;Xã Tân Hội Đông;tan hoi dong;821
28525;Xã;tanhuong;Xã Tân Hương;tan huong;821
28528;Xã;tanlydong;Xã Tân Lý Đông;tan ly dong;821
28531;Xã;tanlytay;Xã Tân Lý Tây;tan ly tay;821
28534;Xã;thancuunghia;Xã Thân Cửu Nghĩa;than cuu nghia;821
28537;Xã;tamhiep;Xã Tam Hiệp;tam hiep;821
28540;Xã;diemhy;Xã Điềm Hy;diem hy;821
28543;Xã;nhibinh;Xã Nhị Bình;nhi binh;821
28546;Xã;duongdiem;Xã Dưỡng Điềm;duong diem;821
28549;Xã;donghoa;Xã Đông Hòa;dong hoa;821
28552;Xã;longdinh;Xã Long Định;long dinh;821
28555;Xã;huudao;Xã Hữu Đạo;huu dao;821
28558;Xã;longan;Xã Long An;long an;821
28561;Xã;longhung;Xã Long Hưng;long hung;821
28564;Xã;binhtrung;Xã Bình Trưng;binh trung;821
28570;Xã;thanhphu;Xã Thạnh Phú;thanh phu;821
28573;Xã;banlong;Xã Bàn Long;ban long;821
28576;Xã;vinhkim;Xã Vĩnh Kim;vinh kim;821
28579;Xã;binhduc;Xã Bình Đức;binh duc;821
28582;Xã;songthuan;Xã Song Thuận;song thuan;821
28585;Xã;kimson;Xã Kim Sơn;kim son;821
28588;Xã;phuphong;Xã Phú Phong;phu phong;821
28594;Thị trấn;chogao;Thị trấn Chợ Gạo;cho gao;822
28597;Xã;trunghoa;Xã Trung Hòa;trung hoa;822
28600;Xã;hoatinh;Xã Hòa Tịnh;hoa tinh;822
28603;Xã;mytinhan;Xã Mỹ Tịnh An;my tinh an;822
28606;Xã;tanbinhthanh;Xã Tân Bình Thạnh;tan binh thanh;822
28609;Xã;phukiet;Xã Phú Kiết;phu kiet;822
28612;Xã;luonghoalac;Xã Lương Hòa Lạc;luong hoa lac;822
28615;Xã;thanhbinh;Xã Thanh Bình;thanh binh;822
28618;Xã;quonlong;Xã Quơn Long;quon long;822
28621;Xã;binhphucnhut;Xã Bình Phục Nhứt;binh phuc nhut;822
28624;Xã;danghungphuoc;Xã Đăng Hưng Phước;dang hung phuoc;822
28627;Xã;tanthuanbinh;Xã Tân Thuận Bình;tan thuan binh;822
28630;Xã;songbinh;Xã Song Bình;song binh;822
28633;Xã;binhphan;Xã Bình Phan;binh phan;822
28636;Xã;longbinhdien;Xã Long Bình Điền;long binh dien;822
28639;Xã;anthanhthuy;Xã An Thạnh Thủy;an thanh thuy;822
28642;Xã;xuandong;Xã Xuân Đông;xuan dong;822
28645;Xã;hoadinh;Xã Hòa Định;hoa dinh;822
28648;Xã;binhninh;Xã Bình Ninh;binh ninh;822
28651;Thị trấn;vinhbinh;Thị trấn Vĩnh Bình;vinh binh;823
28654;Xã;dongson;Xã Đồng Sơn;dong son;823
28657;Xã;binhphu;Xã Bình Phú;binh phu;823
28660;Xã;dongthanh;Xã Đồng Thạnh;dong thanh;823
28663;Xã;thanhcong;Xã Thành Công;thanh cong;823
28666;Xã;binhnhi;Xã Bình Nhì;binh nhi;823
28669;Xã;yenluong;Xã Yên Luông;yen luong;823
28672;Xã;thanhtri;Xã Thạnh Trị;thanh tri;823
28675;Xã;thanhnhut;Xã Thạnh Nhựt;thanh nhut;823
28678;Xã;longvinh;Xã Long Vĩnh;long vinh;823
28681;Xã;binhtan;Xã Bình Tân;binh tan;823
28684;Xã;vinhhuu;Xã Vĩnh Hựu;vinh huu;823
28687;Xã;longbinh;Xã Long Bình;long binh;823
28702;Thị trấn;tanhoa;Thị trấn Tân Hòa;tan hoa;824
28705;Xã;tanghoa;Xã Tăng Hoà;tang hoa;824
28711;Xã;tanphuoc;Xã Tân Phước;tan phuoc;824
28714;Xã;giathuan;Xã Gia Thuận;gia thuan;824
28720;Thị trấn;vamlang;Thị trấn Vàm Láng;vam lang;824
28723;Xã;tantay;Xã Tân Tây;tan tay;824
28726;Xã;kiengphuoc;Xã Kiểng Phước;kieng phuoc;824
28732;Xã;tandong;Xã Tân Đông;tan dong;824
28735;Xã;binhan;Xã Bình Ân;binh an;824
28738;Xã;tandien;Xã Tân Điền;tan dien;824
28741;Xã;binhnghi;Xã Bình Nghị;binh nghi;824
28744;Xã;phuoctrung;Xã Phước Trung;phuoc trung;824
28747;Xã;tanthanh;Xã Tân Thành;tan thanh;824
28690;Xã;tanthoi;Xã Tân Thới;tan thoi;825
28693;Xã;tanphu;Xã Tân Phú;tan phu;825
28696;Xã;phuthanh;Xã Phú Thạnh;phu thanh;825
28699;Xã;tanthanh;Xã Tân Thạnh;tan thanh;825
28750;Xã;phudong;Xã Phú Đông;phu dong;825
28753;Xã;phutan;Xã Phú Tân;phu tan;825
