ID;CAP;TEN;GUESS_PHRASE;TEN_KHONG_DAU;TINH_THANH_PHO_ID
815;Thành phố;mytho;Thành phố Mỹ Tho;thanh pho my tho;82
816;Thị xã;gocong;Thị xã Gò Công;thi xa go cong;82
817;Thị xã;cailay;Thị xã Cai Lậy;thi xa cai lay;82
818;Huyện;tanphuoc;Huyện Tân Phước;huyen tan phuoc;82
819;Huyện;caibe;Huyện Cái Bè;huyen cai be;82
820;Huyện;cailay;Huyện Cai Lậy;huyen cai lay;82
821;Huyện;chauthanh;Huyện Châu Thành;huyen chau thanh;82
822;Huyện;chogao;Huyện Chợ Gạo;huyen cho gao;82
823;Huyện;gocongtay;Huyện Gò Công Tây;huyen go cong tay;82
824;Huyện;gocongdong;Huyện Gò Công Đông;huyen go cong dong;82
825;Huyện;tanphudong;Huyện Tân Phú Đông;huyen tan phu dong;82

