id;enabled;icd;mo_ta;mo_ta_tieng_anh;ten_khong_dau;viet_tat;vncode;nhom_benh_ly_id
1;true;Fish North Carolina engineer;Small Cotton Shoes Cotton;Clothing synthesize;Auto Loan Account;Fantastic Intelligent;ivory Dynamic;1
2;true;Integration Steel;Honduras engineer Wooden;Sudan;Courts;pink Optimization;Ergonomic;2
3;false;Illinois quantifying Assistant;Managed;Creative;Credit Card Account Ridges;eyeballs;Architect solid state violet;3
4;false;Fantastic Handmade Investment Account;Refined;program;Factors;product e-business maroon;calculating Rustic Wooden Mouse;4
5;false;turquoise eyeballs Azerbaijan;program Fantastic connect;repurpose deposit;grey mobile;lavender;user-centric Burg markets;5
6;true;Tasty Rue;cross-platform Graphic Interface array;parallelism IB;Product Checking Account New Leu;Producer circuit Computers;Savings Account Sleek Generic Concrete Pizza;6
7;false;Vietnam Beauty;Ergonomic Frozen Gloves Nicaragua;Brunei Darussalam mobile;Cotton feed firmware;Fundamental Operative Indian Rupee;withdrawal seize grey;7
8;true;AI Analyst;Checking Account;Granite Chair global;Kentucky Frozen Kip;application Rubber Mill;Data Mouse Checking Account;8
9;true;Libyan Arab Jamahiriya Handmade Metal Shoes;Florida Metal;Down-sized ADP;morph system haptic;application Handmade virtual;Berkshire auxiliary Directives;9
10;true;panel Manager;transitional Customer Investor;Intelligent;Washington Bond Markets Units European Composite Unit (EURCO) Intelligent Fresh Cheese;Intelligent Metal Shoes Toys Credit Card Account;Garden Massachusetts;10
