id;cong_kham_ban_dau;da_thanh_toan;don_gia;ten;thoi_gian_chi_dinh;ty_le_thanh_toan;co_bao_hiem;gia_bhyt;gia_khong_bhyt;ma_dung_chung;dich_vu_yeu_cau;nam;ttkb_id;dich_vu_kham_id
1;false;true;31847;PNG Dale;2020-05-05;7878;true;50887;98124;navigate Supervisor;false;65778;1;1
2;true;true;15992;back-end copy;2020-05-05;22844;false;13959;4253;Rapids;true;95663;2;2
3;true;true;9396;Brand monitor multi-tasking;2020-05-05;96958;false;71201;26649;grey Bedfordshire synthesizing;false;85240;3;3
4;true;false;54789;grow;2020-05-05;95078;true;1874;41894;Wooden;true;10372;4;4
5;false;false;37333;Designer Andorra Fresh;2020-05-05;8692;true;66852;64236;Soft gold generate;false;90355;5;5
6;true;false;71371;SSL Computers;2020-05-06;73848;false;32484;79767;matrix Accounts Industrial;true;48010;6;6
7;true;false;68814;niches Multi-tiered Security;2020-05-05;43521;false;30906;5437;grow transform;true;83501;7;7
8;false;false;61048;Kentucky Cotton;2020-05-06;69857;true;86106;35146;Pizza New York;true;88912;8;8
9;true;false;68896;transmit;2020-05-05;47589;true;63551;78221;payment;true;88297;9;9
10;false;false;80775;bandwidth;2020-05-06;84611;false;9959;39382;Music;true;54337;10;10
