id;mo_ta;ten
1;indexing;quantifying expedite
2;Refined Chair;capacitor
3;deposit;Awesome Rubber Pizza
4;SDR Clothing;deposit algorithm invoice
5;silver Unbranded Rubber Fish;Fields
6;dedicated Pizza;Steel payment
7;wireless Investment Account;architectures
8;Personal Loan Account Fantastic Applications;array Extension purple
9;California;e-markets Buckinghamshire
10;revolutionary knowledge base;impactful payment
