id;iso_code;iso_numeric;name;ma_ctk;ten_ctk
1;content backing up Usability;Division;Berkshire virtual;79631;Somali Shilling integrate actuating
2;Holy See (Vatican City State);Personal Loan Account;interactive;93023;robust
3;Norway Auto Loan Account Bahamian Dollar;Persistent Plastic open-source;intuitive clear-thinking;65001;Fresh
4;synthesizing;cutting-edge;integrate;26717;Facilitator alarm
5;Gorgeous;Credit Card Account;Refined Rubber Fish;22323;Sharable
6;Officer Money Market Account Oklahoma;synergies Rustic Rubber Computer engineer;Small invoice;83553;sexy
7;Granite digital Tuna;Assurance fuchsia virtual;Practical Metal Computer;55480;Orchard Connecticut
8;Minnesota Coordinator;Vision-oriented;backing up neutral;38426;bypassing
9;knowledge base New York;compressing haptic;Grocery Ergonomic Interactions;83352;program SAS
10;Legacy Cambridgeshire out-of-the-box;reintermediate;withdrawal;98485;Fork
