so_thu_tu;bhyt_can_tren;bhyt_can_tren_ktc;bhyt_ma_khu_vuc;bhyt_ngay_bat_dau;bhyt_ngay_du_nam_nam;bhyt_ngay_het_han;bhyt_noi_tinh;bhyt_so_the;bhyt_ty_le_mien_giam;bhyt_ty_le_mien_giam_ktc;co_bao_hiem;bhyt_dia_chi;doi_tuong_bhyt_ten;dung_tuyen;giay_to_tre_em;loai_giay_to_tre_em;ngay_mien_cung_chi_tra;the_tre_em;thong_tuyen_bhxh_xml_4210;trang_thai;loai;bhyt_noi_dk_kcbbd;nam;bakb_benh_nhan_id;bakb_don_vi_id
Intelligent Metal Chips;54203;2602;parsing Sleek withdrawal;2020-05-05;2020-05-05;2020-05-05;false;Borders holistic;42485;67109;true;Personal Loan Account;teal;false;Falkland Islands Pound;9494;2020-05-06;true;true;54654;78678;Communications;43774;64769;79048
SCSI projection;87128;64606;relationships Towels;2020-05-05;2020-05-06;2020-05-05;false;Configuration;16753;30610;false;synthesize microchip;quantifying quantify;true;sky blue;36249;2020-05-05;true;true;59899;56519;Fundamental cross-platform;62823;60224;67777
mindshare Marketing orange;67673;11005;indigo Republic of Korea revolutionary;2020-05-05;2020-05-05;2020-05-06;true;deposit;31172;31290;false;Cambridgeshire;redundant info-mediaries;false;Outdoors;11789;2020-05-05;false;true;84774;27105;Licensed National;7392;35164;40883
Designer Officer ubiquitous;3895;74018;Credit Card Account;2020-05-05;2020-05-05;2020-05-05;false;high-level deposit Sausages;23699;52;false;index;Maryland Trace;true;back-end;52605;2020-05-05;true;true;21415;97139;Rubber Awesome;14243;10950;34022
regional Sleek Wooden Cheese;38554;69366;deposit;2020-05-05;2020-05-05;2020-05-05;true;circuit Gorgeous Frozen Comput;85843;62618;true;transitional drive Tajikistan;primary;false;Cotton Coordinator logistical;29645;2020-05-05;false;false;24939;2451;out-of-the-box Taka indexing;93486;72072;34377
Personal Loan Account;72949;1199;Public-key GB;2020-05-05;2020-05-05;2020-05-05;false;Program Associate program;92876;55329;true;Colombian Peso Unidad de Valor Real;Officer;false;Communications sensor;58276;2020-05-05;true;false;48349;68986;Planner online backing up;64614;4103;88460
Sleek;69968;83790;Awesome Wooden Tuna Awesome synthesize;2020-05-05;2020-05-05;2020-05-06;false;Incredible deposit;98756;2392;true;Falkland Islands Pound;Libyan Dinar;true;Swaziland;58578;2020-05-05;true;false;80908;6002;circuit;1006;45506;58126
SDD;3609;26525;Madagascar content-based Arkansas;2020-05-05;2020-05-05;2020-05-05;false;Awesome Rubber Tuna COM Automo;55173;84208;false;whiteboard capacitor;Dynamic;false;Movies Garden;17837;2020-05-05;false;false;13155;39425;Trinidad and Tobago Dollar Pro;81106;101;59136
clear-thinking;639;13123;Luxembourg application Vermont;2020-05-05;2020-05-05;2020-05-06;false;Hat Avon;51537;44024;false;synthesize aggregate;input product Club;false;Computers complexity;19752;2020-05-05;true;true;76593;10566;monitor backing up visionary;69056;42728;128
indigo;45142;44173;Executive secondary;2020-05-05;2020-05-05;2020-05-05;true;SDD;85555;42503;false;backing up Small monitor;invoice Fresh;false;ubiquitous;78679;2020-05-05;false;false;89670;8989;grow hybrid;39637;73798;96543
