id;enabled;gia_bhyt;gia_khong_bhyt;ma_bao_cao_bhyt;ma_bao_cao_byt;so_cong_van_bhxh;so_quyet_dinh;ten_bao_cao_bhxh;ten_dich_vu_khong_bao_hiem;tien_benh_nhan_chi;tien_bhxh_chi;tien_ngoai_bhyt;tong_tien_thanh_toan;ty_le_bhxh_thanh_toan;doi_tuong_dac_biet;nguon_chi;dot_gia_dich_vu_bhxh_id;dich_vu_kham_id
81856;99030;3361;37881;Lock AI;programming;Practical multimedia input;Consultant;Books Granite;Texas;6174;96499;73961;57519;26422;80429;36090;67958;70502
68164;27354;23254;61128;Michigan;Keyboard;backing up;Group Stravenue;Program GB tan;Sleek;61016;80829;85271;94165;43228;11794;3301;49268;46498
67958;71851;45110;95177;Direct back up Computer;calculating Operations;payment Buckinghamshire;Rustic;generate;Buckinghamshire;94854;92374;70458;25070;35021;8231;50039;12023;19181
49268;83729;99030;19175;deposit Oval online;optical framework array;CSS Steel;Gorgeous Concrete Bacon 24/365 moderator;Tennessee schemas Designer;Soap;80919;15980;67109;10286;64954;16147;58163;49746;46944
12023;82401;27354;64665;metrics Internal;Nevada Manat back-end;Steel Books Borders;secondary open-source Islands;generating multi-byte;JBOD;86270;22664;30610;75157;34787;48803;63500;56246;6748
49746;4585;71851;48343;disintermediate;Ergonomic;Canadian Dollar;Small Dobra non-volatile;back up Wooden;Forges mobile;85151;85118;31290;86662;90578;71434;84575;80268;52907
56246;4677;83729;91964;XSS Pants;Savings Account;matrix Pitcairn Islands;leverage Cloned;hard drive;Rubber;87217;18902;52;14884;13537;19864;77613;8588;72456
80268;37696;82401;65787;PCI sticky reboot;Strategist Branding;unleash world-class Fords;Practical;generate Delaware Music;invoice;28032;65653;62618;14157;79471;8304;30841;86604;60377
8588;32156;4585;29381;productivity calculate;flexibility magenta Compatible;Cotton strategic bleeding-edge;Unbranded;sensor withdrawal;SQL;4858;61861;55329;27760;58516;36961;89090;12032;41606
69610;31951;98327;24567;payment Falkland Islands Pound Brand;Hong Kong Dollar;Tasty interactive;Granite Hat Sleek Fresh Pizza;alarm Auto Loan Account;Direct modular sensor;58728;64812;42997;26001;97538;32761;81733;5522;96989
