id;ky_hieu;mo_ta;ten;ten_tieng_anh
1;Factors Fantastic Wooden Chair deposit;engage Specialist generate;Savings Account Lilangeni;Denar best-of-breed
2;auxiliary;fuchsia Savings Account;Mouse;open-source Solutions FTP
3;schemas Gorgeous;flexibility USB Health;deposit Fantastic Wooden Chair Estates;1080p District
4;leading edge Bike orchestrate;azure Personal Loan Account copy;niches Avon;generate Chips Customer
5;Bedfordshire synthesizing Generic Fresh Tuna;Research Garden;Facilitator Ergonomic Cotton Towels TCP;Peso Uruguayo Uruguay Peso en Unidades Indexadas
6;Avon Bedfordshire;executive Avon;Pennsylvania;PNG
7;Savings Account Steel;Money Market Account;Checking Account grey Salad;Global Peso Uruguayo Uruguay Peso en Unidades Indexadas
8;Fresh Granite Consultant;Nevada Team-oriented Orchestrator;Tools navigating;Cloned
9;deposit Regional;Berkshire Ireland Ball;Books Russian Ruble Total;compelling fuchsia
10;Intelligent;New Mexico hierarchy hard drive;Central;wireless Infrastructure
