id;ten;mo_ta;jhi_enable;uu_tien;ma_phan_loai;don_vi_id
1;payment;backing up neutral;false;89243;project synergy Tasty Steel Chips;1
2;back-end;Chair cross-platform Rupiah;false;94096;International;2
3;solid state portals;Lek end-to-end Credit Card Account;true;86220;architecture zero administration Future;3
4;matrix sensor;Texas Accounts;true;25140;Chief iterate Sleek Granite Bacon;4
5;knowledge base connecting;International AGP bandwidth;true;19954;Guarani portal;5
6;Investment Account Lek Chief;New Zealand Dollar ROI wireless;false;39326;Cloned Marketing panel;6
7;Ergonomic Rubber Chair EXE;Sleek Factors input;true;44363;panel Soft card;7
8;bluetooth facilitate;Panama;true;72146;Tanzania;8
9;hacking toolset;Practical Cotton Towels Accountability bifurcated;true;55084;Practical PNG calculating;9
10;Total Egypt;initiative white;true;65207;Trace Cape;10
