id;ten;mo_ta;jhi_enable;uu_tien;ma_phan_loai;don_vi_id
1;Data;Wyoming Dynamic Cliffs;false;53974;transmitting Ergonomic Wooden Pizza hard drive;1
2;Specialist Ball;maximized Ergonomic;true;87539;Frozen embrace Orchestrator;2
3;synergistic Data Money Market Account;Table;true;81395;Bike IB;3
4;Books Factors Bermudian Dollar (customarily known as Bermuda Dollar);robust Fresh;true;55103;olive payment Maryland;4
5;invoice Analyst;withdrawal Clothing Guinea Franc;false;30766;hacking;5
6;transform Sleek Fresh Chicken;Fresh parallelism;false;52974;hacking Ergonomic Fresh Car withdrawal;6
7;SQL solid state;markets embrace;false;94291;Forward calculating Pine;7
8;blue Customer-focused transparent;Associate;true;56262;hack 6th generation;8
9;XSS;Health;true;59699;Incredible;9
10;Digitized Human;needs-based Producer invoice;true;36118;convergence parallelism Rand;10
