id;jhi_enable;jhi_level;parent_id;ten;don_vi_id
1;true;92768;52382;web-readiness navigating compressing;1
2;false;33409;91799;Incredible Beauty;2
3;false;83224;41694;Regional;3
4;true;92115;49306;Rustic Hat Program;4
5;false;27531;4546;Licensed Fresh Soap Fantastic;5
6;false;84042;30220;Alabama;6
7;true;29880;97906;European Monetary Unit (E.M.U.-6);7
8;false;84087;17664;Internal Auto Loan Account;8
9;false;30545;82454;Ergonomic Associate;9
10;false;58217;51918;Venezuela Serbia;10
