id;mo_ta;ten;loai_benh_ly_id
1;Shoes Unbranded hardware;migration compress Saint Pierre and Miquelon;1
2;withdrawal;hub;2
3;Internal;neural parse;3
4;Cheese;deliverables Pakistan Rupee Markets;4
5;Home Customer;Towels mint green;5
6;indigo TCP Hawaii;turquoise;6
7;CFP Franc Buckinghamshire Fort;Steel Plaza capacitor;7
8;circuit;North Dakota out-of-the-box;8
9;Ergonomic Beauty Central;compress Awesome Oklahoma;9
10;convergence;withdrawal;10
