chan_doan_tong_quat;ghi_chu;ket_qua_tong_quat;bakb_benh_nhan_id;bakb_don_vi_id;bakb_benh_nhan_id;bakb_don_vi_id
supply-chains rich;cross-platform North Carolina engage;envisioneer forecast;64769;79048;64769;79048
quantifying Dynamic New Leu;action-items;Handcrafted Isle bus;60224;67777;60224;67777
bypassing Director;1080p bus;multi-byte transmit Group;35164;40883;35164;40883
Small Silver compressing;Frozen;Forks circuit;10950;34022;10950;34022
Shirt auxiliary Saint Pierre and Miquelon;Functionality;applications panel;72072;34377;72072;34377
mobile Handcrafted Street;Soft;Hills Practical Plastic Hat salmon;4103;88460;4103;88460
utilize;generate Toys;focus group Human Representative;45506;58126;45506;58126
pink;Junction;Central matrix;101;59136;101;59136
parsing;Computers Licensed Cotton Towels sky blue;Steel transmitting Home;42728;128;42728;128
deposit compressing Kentucky;Group Berkshire collaboration;Coordinator;73798;96543;73798;96543
