id;chan_doan_tong_quat;ghi_chu;ket_qua_tong_quat;nam;don_vi_id;benh_nhan_id;bakb_id
1;Madagascar Officer;Berkshire Technician Rubber;transition Sausages;65954;1;1;1
2;Arkansas Arkansas Liaison;Tools Music reboot;Customizable Mississippi Architect;96390;2;2;2
3;Inlet;radical;intuitive;14228;3;3;3
4;Music Centralized Junction;Operations Quality-focused Usability;primary markets quantify;16256;4;4;4
5;Forward Gold;capacitor Spur Auto Loan Account;Digitized;88323;5;5;5
6;Movies;Incredible AI;collaboration;7209;6;6;6
7;Analyst open-source Intelligent;override Intelligent;Incredible;43166;7;7;7
8;Profound;Division Overpass;Lari Cambridgeshire navigating;61433;8;8;8
9;SCSI Ergonomic olive;EXE Cambridgeshire Fantastic;maroon United Kingdom;12833;9;9;9
10;Industrial Ameliorated EXE;Intelligent Rubber Tuna Louisiana;Avon Coves;66605;10;10;10
