id;enabled;ky_hieu;loai;phone;ten;vi_tri;khoa_id
1;false;monetize Investment Account Berkshire;80476;871-697-0368 x8;AGP;Cliff neural reboot;1
2;true;Cheese USB;74013;347.473.2744;actuating;Ball CFA Franc BEAC Table;2
3;false;bypassing;31697;(796) 236-4384 ;Industrial;Oklahoma;3
4;false;Mouse;68144;450.883.9965;capability;matrix Developer Steel;4
5;true;Visionary CFA Franc BCEAO;80073;1-001-549-9765 ;Palladium Tasty Metal Ball integrated;Intelligent cross-media India;5
6;false;Division Handcrafted Cotton Pants Moldova;78895;(872) 313-3780;JBOD;Mississippi;6
7;true;Designer;18334;(349) 761-7854 ;Inverse auxiliary;Concrete;7
8;true;synthesize Practical Granite Salad CSS;41119;444-207-6645 x7;deposit redefine withdrawal;Licensed;8
9;false;salmon;30052;1-906-768-5672 ;Health;transmitting Michigan Practical Granite Salad;9
10;false;Technician hack composite;18861;410.224.6095 x4;4th generation alarm;Alaska enable;10
