id;bmi;can_nang;chieu_cao;creatinin;dau_hieu_lam_sang;do_thanh_thai;huyet_ap_cao;huyet_ap_thap;icd;lan_hen;loi_dan;ly_do_chuyen;ma_benh_yhct;mach;max_ngay_ra_toa;ngay_hen;nhan_dinh_bmi;nhan_dinh_do_thanh_thai;nhap_vien;nhiet_do;nhip_tho;pp_dieu_tri_ytct;so_lan_in_bang_ke;so_lan_in_toa_thuoc;ten_benh_icd;ten_benh_theo_bac_si;ten_benh_yhct;trang_thai_cdha;trang_thai_ttpt;trang_thai_xet_nghiem;trieu_chung_lam_sang;vong_bung;trang_thai;thoi_gian_ket_thuc_kham;phong_id_chuyen_tu;thoi_gian_kham_benh;y_lenh;loai_y_lenh;chan_doan;loai_chan_doan
1;63280;45600;28193;31560;bus hack purple;55618;45813;67353;Investment Account invoice;false;XSS tan Practical Cotton Hat;Generic Fresh Keyboard;auxiliary Bolivia channels;92795;84887;2020-05-05;Concrete Architect Security;Small Handmade Frozen Ball Computers;true;4987;17608;Plastic Investment Account;28315;50665;groupware Granite;black;indigo;false;true;false;optimizing Optimization Malagasy Ariary;97217;false;2020-05-05T20:51:43;60424;2020-05-06T01:05:56;heuristic Networked Money Market Account;false;Technician;true
2;69658;7558;46601;94594;Quality Refined Plastic Ball Dynamic;98332;5456;14181;value-added;false;Jewelery;out-of-the-box;array;24371;98397;2020-05-06;Bedfordshire;Metal Courts Grocery;false;88775;22625;Course generating Iceland Krona;11545;61009;Ball salmon;Upgradable client-driven;JBOD;false;false;true;Checking Account Research;85676;false;2020-05-06T04:14:00;2415;2020-05-05T23:48:01;Frozen;false;Hawaii Checking Account;true
3;11936;10835;27625;72262;invoice;73686;16464;99396;encompassing Wooden online;false;Ball bluetooth data-warehouse;Nepalese Rupee navigating;interface;80589;84021;2020-05-06;HDD;Djibouti Franc;true;97993;85301;bandwidth Fantastic Ports;99761;97902;Functionality purple;Timor-Leste;Cheese Street Automotive;true;true;true;XML;93058;false;2020-05-05T15:52:13;23789;2020-05-05T10:28:09;Vatu;false;quantifying Movies;true
4;71377;45256;66173;85180;Open-architected;50224;61113;19032;system;false;wireless frame partnerships;Guyana;Human Metal;53008;88959;2020-05-06;indexing;Investment Account schemas invoice;false;51758;13111;Rustic Human;70636;69092;Estates;Checking Account;Silver monitor Tugrik;true;false;false;Mobility;43390;false;2020-05-05T13:51:03;88199;2020-05-05T20:08:27;Future;false;compressing Markets;true
5;19640;54689;43163;26451;grid-enabled Paradigm Soap;52789;51964;8054;Garden Pennsylvania;true;Manager static;Shoes;JSON Summit;44841;62995;2020-05-05;Money Market Account;Home Loan Account;true;90117;67552;SQL;28710;61222;Island digital;calculating;Gloves;false;false;false;Granite connect Granite;10394;false;2020-05-05T11:22:07;949;2020-05-05T19:15:49;Incredible Concrete Keyboard;true;deposit;false
6;17877;52031;92309;73731;THX granular;70712;43325;67368;Chicken Cotton;true;Data;Future well-modulated;ROI matrix;66287;43032;2020-05-05;microchip Manager Fresh;transmitter;true;74011;80170;embrace Rhode Island Credit Card Account;1198;15785;turn-key Awesome;Isle of Man B2B;Small Frozen Bacon compressing;true;false;false;Borders;37223;true;2020-05-06T07:15:47;49663;2020-05-05T16:32:03;holistic Cambridgeshire Motorway;true;Down-sized;false
7;95865;93839;73278;92494;National;97996;93681;27896;Central optical back-end;false;Bacon Trace;Cote d'Ivoire scalable;USB;70899;82746;2020-05-05;Communications;Solomon Islands Dollar;false;77439;13921;invoice mission-critical Tasty Cotton Chicken;22510;54441;Field non-volatile;Plastic mindshare withdrawal;Down-sized Ball indexing;true;false;true;Delaware;22006;true;2020-05-05T13:19:42;72408;2020-05-05T10:10:14;array teal;false;Table synthesize parse;false
8;13560;94914;1468;67062;Cheese;22224;8880;7368;Tasty Rubber Chicken Tools hard drive;true;Books Haven Bedfordshire;bottom-line;Plastic;18352;32836;2020-05-06;enhance;gold;true;87100;12596;cross-platform Incredible Plastic Bike Persistent;5831;33853;Auto Loan Account Avon connect;Jersey;Progressive;true;false;true;Kazakhstan;57395;false;2020-05-05T20:43:39;43628;2020-05-05T13:48:25;programming Legacy;false;Money Market Account asymmetric multi-byte;false
9;19323;88696;24551;30063;proactive invoice;9141;96063;74533;generate invoice;false;utilize Computer;Personal Loan Account;enhance Tajikistan Movies;78082;59907;2020-05-05;Unbranded;supply-chains;true;22513;47658;Gorgeous Cotton Chips programming;64395;63833;value-added Oklahoma;Program Auto Loan Account USB;Planner Generic Soft Pants Money Market Account;true;false;false;Kip Strategist;27293;true;2020-05-06T03:30:21;98775;2020-05-05T22:40:07;empower Checking Account;false;transmitter primary Checking Account;true
10;81794;98339;1604;21930;Djibouti Franc;13671;22592;82362;orange;false;Metrics protocol Baby;pixel Avon bus;teal Senior;73955;33128;2020-05-05;quantify Checking Account;Response;false;51008;43786;Automated;91549;4941;Estate;Accountability Passage;Indiana silver;false;false;true;Savings Account;4270;false;2020-05-05T08:37:59;20780;2020-05-06T05:33:05;Plastic multi-tasking Interactions;true;Kenyan Shilling;false
