id;ky_thuat_cao;ma_bao_cao_bhxh;ma_bao_cao_bhyt;ngay_ap_dung;so_cong_van_bhxh;so_quyet_dinh;ten_bao_cao_bhxh;ten_dich_vu_khong_bhyt;tien_benh_nhan_chi;tien_bhxh_chi;tien_ngoai_bhyt;tong_tien_thanh_toan;ty_le_bhxh_thanh_toan;gia_bhyt;gia_khong_bhyt;doi_tuong_dac_biet;nguon_chi;jhi_enable;dot_gia_id;ttpt_id
1;98826;Greens;open-source Soft;2020-05-05;synthesize Communications Oregon;auxiliary quantifying;Borders;syndicate Graphical User Interface;65130;68153;46406;30652;29164;9370;71451;false;51816;false;1;1
2;93183;Awesome quantify Baby;withdrawal;2020-05-05;networks bus;copying bypass;payment index;Architect AGP;20277;40836;46500;4431;16281;57322;39936;true;13020;false;2;2
3;40243;Lempira Freeway Metal;Lock;2020-05-05;Persistent;Intelligent Wooden Towels Health GB;programming Chicken overriding;copy purple auxiliary;20078;28741;81305;60918;65561;78325;55732;false;69525;true;3;3
4;26318;Fish;hacking;2020-05-05;Baht;portal grey system-worthy;methodology Implementation;Cheese Operations Outdoors;26375;14805;66740;97639;87708;40610;27753;true;21842;true;4;4
5;5827;Customer Corners;Unbranded Rubber Mouse red;2020-05-05;Unbranded Plastic Computer Uganda Shilling Representative;Tunnel;Mews;National grey;60182;98479;92900;51097;54563;53866;16435;false;64967;true;5;5
6;61433;neural Auto Loan Account;systems Lilangeni sensor;2020-05-05;online radical Shoes;synergy Checking Account Rustic Concrete Sausages;Principal;Frozen Managed Unbranded Rubber Bacon;57084;72626;91766;50679;32615;45174;44551;false;42328;false;6;6
7;82333;Cambridgeshire Cambridgeshire;Cambridgeshire Borders;2020-05-05;Peso Uruguayo Uruguay Peso en Unidades Indexadas monitoring;Small Metal Chicken;Accounts;drive Web;42661;89519;18646;57325;40224;47717;22802;true;51654;false;7;7
8;41158;Cambridgeshire Massachusetts;Chicken Plastic Integrated;2020-05-05;Pizza channels;Chips Connecticut morph;Steel;Western Sahara Pound Sterling;75452;31066;57958;83059;43032;3604;35967;false;38554;false;8;8
9;70620;EXE Licensed deploy;New York;2020-05-06;Applications leading edge;Frozen West Virginia;matrix structure Handmade;convergence;49361;42428;17304;56997;53517;91798;81477;false;12103;false;9;9
10;18272;De-engineered monitor;Bedfordshire killer;2020-05-06;multi-byte Soft;payment Principal Texas;Unbranded incentivize;Fresh Avon Pre-emptive;65923;9688;13210;34352;73051;32620;4025;true;75480;false;10;10
