id;mo_ta
1;olive 1080p withdrawal
2;Afghanistan Decentralized
3;Grocery
4;paradigms Bedfordshire
5;SSL action-items hard drive
6;invoice high-level
7;didactic
8;Cape Verde Escudo optical
9;Crest North Dakota open architecture
10;Norwegian Krone HDD Equatorial Guinea
