{
  "fluentMethods": true,
  "clientRootFolder": "khamchuabenh",
  "relationships": [
    {
      "relationshipType": "many-to-many",
      "otherEntityName": "nhanVien",
      "otherEntityRelationshipName": "chucVu",
      "relationshipName": "nhanVien",
      "otherEntityField": "id",
      "ownerSide": false
    }
  ],
  "fields": [
    {
      "fieldName": "moTa",
      "fieldType": "String",
      "fieldValidateRules": ["maxlength"],
      "fieldValidateRulesMaxlength": "500"
    },
    {
      "fieldName": "ten",
      "fieldType": "String",
      "fieldValidateRules": ["required", "maxlength"],
      "fieldValidateRulesMaxlength": "500"
    }
  ],
  "changelogDate": "20200506023848",
  "dto": "mapstruct",
  "searchEngine": false,
  "service": "serviceImpl",
  "entityTableName": "chuc_vu",
  "databaseType": "sql",
  "readOnly": false,
  "jpaMetamodelFiltering": true,
  "pagination": "pagination",
  "microserviceName": "khamchuabenh",
  "name": "ChucVu",
  "embedded": false,
  "applications": ["khamchuabenh"]
}
