{
  "fluentMethods": true,
  "clientRootFolder": "khamchuabenh",
  "fields": [
    {
      "fieldName": "enabled",
      "javadoc": "Trạng thái có hiệu lực: 1: Có. 0: Hết hiệu lực",
      "fieldType": "Integer"
    },
    {
      "fieldName": "giaBhyt",
      "fieldType": "BigDecimal",
      "fieldValidateRules": ["required"]
    },
    {
      "fieldName": "giaKhongBhyt",
      "fieldType": "BigDecimal",
      "fieldValidateRules": ["required"]
    },
    {
      "fieldName": "maBaoCaoBhyt",
      "fieldType": "String",
      "fieldValidateRules": ["maxlength"],
      "fieldValidateRulesMaxlength": "255"
    },
    {
      "fieldName": "maBaoCaoByt",
      "fieldType": "String",
      "fieldValidateRules": ["maxlength"],
      "fieldValidateRulesMaxlength": "255"
    },
    {
      "fieldName": "soCongVanBhxh",
      "fieldType": "String",
      "fieldValidateRules": ["maxlength"],
      "fieldValidateRulesMaxlength": "255"
    },
    {
      "fieldName": "soQuyetDinh",
      "fieldType": "String",
      "fieldValidateRules": ["maxlength"],
      "fieldValidateRulesMaxlength": "255"
    },
    {
      "fieldName": "tenBaoCaoBhxh",
      "fieldType": "String",
      "fieldValidateRules": ["maxlength"],
      "fieldValidateRulesMaxlength": "500"
    },
    {
      "fieldName": "tenDichVuKhongBaoHiem",
      "fieldType": "String",
      "fieldValidateRules": ["maxlength"],
      "fieldValidateRulesMaxlength": "500"
    },
    {
      "fieldName": "tienBenhNhanChi",
      "fieldType": "BigDecimal",
      "fieldValidateRules": ["required"]
    },
    {
      "fieldName": "tienBhxhChi",
      "fieldType": "BigDecimal",
      "fieldValidateRules": ["required"]
    },
    {
      "fieldName": "tienNgoaiBhyt",
      "fieldType": "BigDecimal",
      "fieldValidateRules": ["required"]
    },
    {
      "fieldName": "tongTienThanhToan",
      "fieldType": "BigDecimal",
      "fieldValidateRules": ["required"]
    },
    {
      "fieldName": "tyLeBhxhThanhToan",
      "fieldType": "Integer"
    },
    {
      "fieldName": "doiTuongDacBiet",
      "javadoc": "Đối tượng đặc biệt có bảng giá khác. 0: Bình thường. 1: được quy định",
      "fieldType": "Integer"
    },
    {
      "fieldName": "nguonChi",
      "javadoc": "Nguồn chi bảo hiểm cho bệnh nhân: 1: BHYT. 2: Nhà nước. 3: Khác",
      "fieldType": "Integer"
    }
  ],
  "relationships": [
    {
      "relationshipType": "many-to-one",
      "otherEntityName": "dotGiaDichVuBhxh",
      "otherEntityRelationshipName": "dichVuKhamApDung",
      "relationshipValidateRules": "required",
      "relationshipName": "dotGiaDichVuBhxh",
      "otherEntityField": "id"
    },
    {
      "relationshipType": "many-to-one",
      "otherEntityName": "dichVuKham",
      "otherEntityRelationshipName": "dichVuKhamApDung",
      "relationshipValidateRules": "required",
      "relationshipName": "dichVuKham",
      "otherEntityField": "id"
    }
  ],
  "changelogDate": "20200608000002",
  "dto": "mapstruct",
  "searchEngine": false,
  "service": "serviceImpl",
  "entityTableName": "dich_vu_kham_ap_dung",
  "databaseType": "sql",
  "readOnly": false,
  "jpaMetamodelFiltering": true,
  "pagination": "pagination",
  "microserviceName": "khamchuabenh",
  "name": "DichVuKhamApDung",
  "embedded": false,
  "applications": ["khamchuabenh"],
  "javadoc": "Danh mục dịch vụ khám đã được map với đợt thay đổi mã và thay đổi giá"
}
