{
  "fluentMethods": true,
  "clientRootFolder": "khamchuabenh",
  "fields": [
    {
      "fieldName": "doiTuongApDung",
      "javadoc": "0: áp dụng ngay lập tức, 1: Áp dụng cho bệnh nhân mới vào viện",
      "fieldType": "Integer"
    },
    {
      "fieldName": "ghiChu",
      "javadoc": "Ghi chú",
      "fieldType": "String",
      "fieldValidateRules": ["maxlength"],
      "fieldValidateRulesMaxlength": "500"
    },
    {
      "fieldName": "ngayApDung",
      "javadoc": "Ngày áp dụng của công văn danh mục",
      "fieldType": "LocalDate",
      "fieldValidateRules": ["required"]
    },
    {
      "fieldName": "ten",
      "javadoc": "Tên công văn",
      "fieldType": "String",
      "fieldValidateRules": ["required"],
      "fieldValidateRulesMaxlength": "100"
    }
  ],
  "relationships": [
    {
      "relationshipType": "many-to-one",
      "otherEntityName": "donVi",
      "otherEntityRelationshipName": "dotMaDv",
      "relationshipValidateRules": "required",
      "relationshipName": "donVi",
      "otherEntityField": "id"
    }
  ],
  "changelogDate": "20200608000000",
  "dto": "mapstruct",
  "searchEngine": false,
  "service": "serviceImpl",
  "entityTableName": "dot_ma_dv",
  "readOnly": false,
  "jpaMetamodelFiltering": true,
  "pagination": "pagination",
  "microserviceName": "khamchuabenh",
  "name": "DotThayDoiMaDichVu",
  "embedded": false,
  "applications": ["khamchuabenh"],
  "javadoc": "Thông tin công văn quy định mã của các loại dịch vụ mã bệnh viện sử dụng"
}
