{
  "name": "NgheNghiep",
  "fields": [
    {
      "fieldName": "ma4069",
      "javadoc": "Mã nghề nghiệp 4069",
      "fieldType": "Integer",
      "fieldValidateRules": ["required"]
    },
    {
      "fieldName": "ten4069",
      "javadoc": "Tên nghề nghiệp 4069",
      "fieldType": "String",
      "fieldValidateRules": ["required", "maxlength"],
      "fieldValidateRulesMaxlength": "500"
    }
  ],
  "relationships": [],
  "changelogDate": "20200506071300",
  "javadoc": "NDB_TABLE=READ_BACKUP=1 Thông tin nghề nghiệp theo công văn 4069",
  "entityTableName": "nghe_nghiep",
  "dto": "mapstruct",
  "service": "serviceImpl",
  "jpaMetamodelFiltering": true,
  "fluentMethods": true,
  "readOnly": false,
  "embedded": false,
  "clientRootFolder": "khamchuabenh",
  "applications": ["khamchuabenh"],
  "microserviceName": "khamchuabenh"
}
