{
  "name": "NhanVien",
  "fields": [
    {
      "fieldName": "ten",
      "javadoc": "Tên nhân vien",
      "fieldType": "String",
      "fieldValidateRules": ["required", "maxlength"],
      "fieldValidateRulesMaxlength": "300"
    },
    {
      "fieldName": "chungChiHanhNghe",
      "javadoc": "Chứng chỉ hành nghề",
      "fieldType": "String",
      "fieldValidateRules": ["required", "maxlength"],
      "fieldValidateRulesMaxlength": "255"
    },
    {
      "fieldName": "cmnd",
      "javadoc": "CMND của nhân viên",
      "fieldType": "String",
      "fieldValidateRules": ["required", "maxlength"],
      "fieldValidateRulesMaxlength": "30"
    },
    {
      "fieldName": "gioiTinh",
      "javadoc": "0: Nữ. 1 Nam",
      "fieldType": "Integer",
      "fieldValidateRules": ["required"]
    },
    {
      "fieldName": "ngaySinh",
      "javadoc": "Ngày sinh",
      "fieldType": "LocalDate",
      "fieldValidateRules": ["required"]
    }
  ],
  "relationships": [
    {
      "relationshipType": "many-to-one",
      "otherEntityName": "chucDanh",
      "otherEntityRelationshipName": "nhanVien",
      "relationshipValidateRules": "required",
      "javadoc": "Mã chức danh",
      "relationshipName": "chucDanh",
      "otherEntityField": "id"
    },
    {
      "relationshipType": "many-to-one",
      "otherEntityName": "userExtra",
      "otherEntityRelationshipName": "nhanVien",
      "javadoc": "Mã người dùng",
      "relationshipName": "userExtra",
      "otherEntityField": "id"
    },
    {
      "relationshipType": "many-to-many",
      "otherEntityName": "chucVu",
      "otherEntityRelationshipName": "nhanVien",
      "relationshipValidateRules": "required",
      "relationshipName": "chucVu",
      "otherEntityField": "id",
      "ownerSide": true
    }
  ],
  "changelogDate": "20200506071400",
  "entityTableName": "nhan_vien",
  "dto": "mapstruct",
  "pagination": "pagination",
  "service": "serviceImpl",
  "jpaMetamodelFiltering": true,
  "fluentMethods": true,
  "readOnly": false,
  "embedded": false,
  "clientRootFolder": "khamchuabenh",
  "applications": ["khamchuabenh"],
  "microserviceName": "khamchuabenh"
}
