{
  "name": "NhomDoiTuongBhyt",
  "fields": [
    {
      "fieldName": "ten",
      "javadoc": "Tên nhóm đối tượng BHYT",
      "fieldType": "String",
      "fieldValidateRules": ["required", "maxlength"],
      "fieldValidateRulesMaxlength": "500"
    }
  ],
  "relationships": [],
  "changelogDate": "20200506071600",
  "entityTableName": "nhom_doi_tuong_bhyt",
  "dto": "mapstruct",
  "service": "serviceImpl",
  "jpaMetamodelFiltering": true,
  "fluentMethods": true,
  "readOnly": false,
  "embedded": false,
  "clientRootFolder": "khamchuabenh",
  "applications": ["khamchuabenh"],
  "microserviceName": "khamchuabenh"
}
