{
  "fluentMethods": true,
  "clientRootFolder": "khamchuabenh",
  "fields": [
    {
      "fieldName": "enable",
      "javadoc": "Trạng thái có hiệu lực của dịch vụ: \\r\\n1: Còn hiệu lực. \\r\\n0: Đã ẩn.",
      "fieldType": "Boolean",
      "fieldValidateRules": [
        "required"
      ]
    },
    {
      "fieldName": "level",
      "javadoc": "Cấp của nhóm chẩn đoán hình ảnh",
      "fieldType": "Integer",
      "fieldValidateRules": [
        "required"
      ]
    },
    {
      "fieldName": "parentId",
      "javadoc": "Mã nhóm cha",
      "fieldType": "BigDecimal",
      "fieldValidateRules": [
        "required"
      ]
    },
    {
      "fieldName": "ten",
      "javadoc": "Tên nhóm",
      "fieldType": "String",
      "fieldValidateRules": [
        "maxlength"
      ],
      "fieldValidateRulesMaxlength": "500"
    }
  ],
  "relationships": [
    {
      "relationshipType": "many-to-one",
      "otherEntityName": "donVi",
      "otherEntityRelationshipName": "nhomcdha",
      "relationshipValidateRules": "required",
      "relationshipName": "donVi",
      "otherEntityField": "id"
    }
  ],
  "changelogDate": "20200506034700",
  "entityTableName": "nhom_chan_doan_hinh_anh",
  "dto": "mapstruct",
  "pagination": "pagination",
  "service": "serviceImpl",
  "jpaMetamodelFiltering": true,
  "fluentMethods": true,
  "readOnly": false,
  "embedded": false,
  "clientRootFolder": "khamchuabenh",
  "applications": [
    "khamchuabenh"
  ],
  "microserviceName": "khamchuabenh"
}
