{
  "fluentMethods": true,
  "clientRootFolder": "khamchuabenh",
  "fields": [
    {
      "fieldName": "chanDoanTongQuat",
      "javadoc": "Chẩn đoán tổng quát",
      "fieldType": "String",
      "fieldValidateRules": ["maxlength"],
      "fieldValidateRulesMaxlength": "255"
    },
    {
      "fieldName": "ghiChu",
      "javadoc": "Ghi chú",
      "fieldType": "String",
      "fieldValidateRules": ["maxlength"],
      "fieldValidateRulesMaxlength": "255"
    },
    {
      "fieldName": "ketQuaTongQuat",
      "javadoc": "Kết quả tổng quát",
      "fieldType": "String",
      "fieldValidateRules": ["maxlength"],
      "fieldValidateRulesMaxlength": "255"
    },
    {
      "fieldName": "nam",
      "fieldType": "Integer",
      "fieldValidateRules": ["required"]
    }
  ],
  "relationships": [
    {
      "relationshipType": "many-to-one",
      "otherEntityName": "benhAnKhamBenh",
      "otherEntityRelationshipName": "phieuCDTTPT",
      "relationshipValidateRules": "required",
      "relationshipName": "donVi",
      "otherEntityField": "id"
    },
    {
      "relationshipType": "many-to-one",
      "otherEntityName": "benhAnKhamBenh",
      "otherEntityRelationshipName": "phieuCDTTPT",
      "relationshipValidateRules": "required",
      "relationshipName": "benhNhan",
      "otherEntityField": "id"
    },
    {
      "relationshipType": "many-to-one",
      "otherEntityName": "benhAnKhamBenh",
      "otherEntityRelationshipName": "phieuCDTTPT",
      "relationshipValidateRules": "required",
      "relationshipName": "bakb",
      "otherEntityField": "id"
    }
  ],
  "changelogDate": "20200506034700",
  "entityTableName": "phieu_chi_dinh_ttpt",
  "dto": "mapstruct",
  "pagination": "pagination",
  "service": "serviceImpl",
  "jpaMetamodelFiltering": true,
  "fluentMethods": true,
  "readOnly": false,
  "embedded": false,
  "clientRootFolder": "khamchuabenh",
  "applications": [
    "khamchuabenh"
  ],
  "microserviceName": "khamchuabenh"
}
