{
  "name": "TBenhLyKhamBenh",
  "fields": [
    {
      "fieldName": "loaiBenh",
      "javadoc": "Loại bệnh:\\n1: Bệnh Chính.\\n0: Bệnh phụ.",
      "fieldType": "Boolean",
      "fieldValidateRules": ["required"]
    }
  ],
  "relationships": [
    {
      "relationshipType": "many-to-one",
      "otherEntityName": "thongTinKhamBenh",
      "otherEntityRelationshipName": "tBenhLyKhamBenh",
      "relationshipValidateRules": "required",
      "relationshipName": "bakb",
      "otherEntityField": "id"
    },
    {
      "relationshipType": "many-to-one",
      "otherEntityName": "thongTinKhamBenh",
      "otherEntityRelationshipName": "tBenhLyKhamBenh",
      "relationshipValidateRules": "required",
      "relationshipName": "donVi",
      "otherEntityField": "id"
    },
    {
      "relationshipType": "many-to-one",
      "otherEntityName": "thongTinKhamBenh",
      "otherEntityRelationshipName": "tBenhLyKhamBenh",
      "relationshipValidateRules": "required",
      "relationshipName": "benhNhan",
      "otherEntityField": "id"
    },
    {
      "relationshipType": "many-to-one",
      "otherEntityName": "thongTinKhamBenh",
      "otherEntityRelationshipName": "tBenhLyKhamBenh",
      "relationshipValidateRules": "required",
      "relationshipName": "dotDieuTri",
      "otherEntityField": "id"
    },
    {
      "relationshipType": "many-to-one",
      "otherEntityName": "thongTinKhamBenh",
      "otherEntityRelationshipName": "tBenhLyKhamBenh",
      "relationshipValidateRules": "required",
      "relationshipName": "thongTinKhoa",
      "otherEntityField": "id"
    },
    {
      "relationshipType": "many-to-one",
      "otherEntityName": "thongTinKhamBenh",
      "otherEntityRelationshipName": "tBenhLyKhamBenh",
      "relationshipValidateRules": "required",
      "relationshipName": "thongTinKhamBenh",
      "otherEntityField": "id"
    },
    {
      "relationshipType": "many-to-one",
      "otherEntityName": "benhLy",
      "otherEntityRelationshipName": "tBenhLyKhamBenh",
      "relationshipValidateRules": "required",
      "relationshipName": "benhLy",
      "otherEntityField": "id"
    }
  ],
  "changelogDate": "20200506072200",
  "entityTableName": "t_benh_ly_kham_benh",
  "dto": "mapstruct",
  "pagination": "pagination",
  "service": "serviceImpl",
  "jpaMetamodelFiltering": true,
  "fluentMethods": true,
  "readOnly": false,
  "embedded": false,
  "clientRootFolder": "khamchuabenh",
  "applications": ["khamchuabenh"],
  "microserviceName": "khamchuabenh"
}
