{
  "name": "ThongTinKhamBenh",
  "fields": [
    {
      "fieldName": "bmi",
      "javadoc": "Chỉ số BMI",
      "fieldType": "BigDecimal"
    },
    {
      "fieldName": "canNang",
      "javadoc": "Cân nặng",
      "fieldType": "BigDecimal"
    },
    {
      "fieldName": "chieuCao",
      "javadoc": "Chiều cao (tính bằng cm)",
      "fieldType": "Integer"
    },
    {
      "fieldName": "creatinin",
      "javadoc": "Creatinin",
      "fieldType": "BigDecimal"
    },
    {
      "fieldName": "dauHieuLamSang",
      "javadoc": "Dấu hiệu lâm sàng",
      "fieldType": "String",
      "fieldValidateRules": ["maxlength"],
      "fieldValidateRulesMaxlength": "500"
    },
    {
      "fieldName": "doThanhThai",
      "javadoc": "Độ thành thải Creatinin",
      "fieldType": "BigDecimal"
    },
    {
      "fieldName": "huyetApCao",
      "javadoc": "Huyết áp cao",
      "fieldType": "Integer"
    },
    {
      "fieldName": "huyetApThap",
      "javadoc": "Huyết áp thấp",
      "fieldType": "Integer"
    },
    {
      "fieldName": "icd",
      "javadoc": "ICD",
      "fieldType": "String",
      "fieldValidateRules": ["maxlength"],
      "fieldValidateRulesMaxlength": "50"
    },
    {
      "fieldName": "lanHen",
      "javadoc": "Lần hẹn",
      "fieldType": "Integer"
    },
    {
      "fieldName": "loiDan",
      "javadoc": "Lời dặn",
      "fieldType": "String",
      "fieldValidateRules": ["maxlength"],
      "fieldValidateRulesMaxlength": "500"
    },
    {
      "fieldName": "lyDoChuyen",
      "javadoc": "Lý do chuyển",
      "fieldType": "String",
      "fieldValidateRules": ["maxlength"],
      "fieldValidateRulesMaxlength": "2000"
    },
    {
      "fieldName": "maBenhYhct",
      "javadoc": "Mã bệnh y học cổ truyền",
      "fieldType": "String",
      "fieldValidateRules": ["maxlength"],
      "fieldValidateRulesMaxlength": "100"
    },
    {
      "fieldName": "mach",
      "javadoc": "Mạch",
      "fieldType": "Integer"
    },
    {
      "fieldName": "maxNgayRaToa",
      "javadoc": "Ngày ra toa tối đa",
      "fieldType": "Integer"
    },
    {
      "fieldName": "ngayHen",
      "javadoc": "Ngày hẹn",
      "fieldType": "LocalDate"
    },
    {
      "fieldName": "nhanDinhBmi",
      "javadoc": "Nhận định BMI",
      "fieldType": "String",
      "fieldValidateRules": ["maxlength"],
      "fieldValidateRulesMaxlength": "500"
    },
    {
      "fieldName": "nhanDinhDoThanhThai",
      "javadoc": "Nhận định độ thanh thải",
      "fieldType": "String",
      "fieldValidateRules": ["maxlength"],
      "fieldValidateRulesMaxlength": "500"
    },
    {
      "fieldName": "nhapVien",
      "javadoc": "Trận thái nhập viện. 0: Không nhập viện. 1: Nhập viện",
      "fieldType": "Boolean",
      "fieldValidateRules": ["required"]
    },
    {
      "fieldName": "nhietDo",
      "javadoc": "Nhiệt độ",
      "fieldType": "BigDecimal"
    },
    {
      "fieldName": "nhipTho",
      "javadoc": "Nhiệp thở",
      "fieldType": "Integer"
    },
    {
      "fieldName": "ppDieuTriYtct",
      "javadoc": "Phương pháp điều trị y học cổ truyền",
      "fieldType": "String",
      "fieldValidateRules": ["maxlength"],
      "fieldValidateRulesMaxlength": "2000"
    },
    {
      "fieldName": "soLanInBangKe",
      "javadoc": "Số lần in bảng kê",
      "fieldType": "Integer"
    },
    {
      "fieldName": "soLanInToaThuoc",
      "javadoc": "Số lần in toa thuốc",
      "fieldType": "Integer"
    },
    {
      "fieldName": "tenBenhIcd",
      "javadoc": "Tên bệnh theo icd",
      "fieldType": "String",
      "fieldValidateRules": ["maxlength"],
      "fieldValidateRulesMaxlength": "500"
    },
    {
      "fieldName": "tenBenhTheoBacSi",
      "javadoc": "Tên bệnh theo bác sĩ",
      "fieldType": "String",
      "fieldValidateRules": ["maxlength"],
      "fieldValidateRulesMaxlength": "500"
    },
    {
      "fieldName": "tenBenhYhct",
      "javadoc": "Tên bệnh y học cổ truyền",
      "fieldType": "String",
      "fieldValidateRules": ["maxlength"],
      "fieldValidateRulesMaxlength": "500"
    },
    {
      "fieldName": "trangThaiCdha",
      "javadoc": "Trạng thái đã chẩn đoán hình ảnh: 0: Chưa thực hiện đủ: 1: Đã thực hiện đủ",
      "fieldType": "Boolean",
      "fieldValidateRules": ["required"]
    },
    {
      "fieldName": "trangThaiTtpt",
      "javadoc": "Trạng thái đã thực hiện ttpt: 0: Chưa thực hiện đủ: 1: Đã thực hiện đủ",
      "fieldType": "Boolean",
      "fieldValidateRules": ["required"]
    },
    {
      "fieldName": "trangThaiXetNghiem",
      "javadoc": "Trạng thái đã xét nghiệm: 0: Chưa thực hiện đủ: 1: Đã thực hiện đủ",
      "fieldType": "Boolean",
      "fieldValidateRules": ["required"]
    },
    {
      "fieldName": "trieuChungLamSang",
      "javadoc": "Triệu chứng lâm sàng",
      "fieldType": "String",
      "fieldValidateRules": ["maxlength"],
      "fieldValidateRulesMaxlength": "255"
    },
    {
      "fieldName": "vongBung",
      "javadoc": "Vòng bụng",
      "fieldType": "Integer"
    },
    {
      "fieldName": "trangThai",
      "javadoc": "Trạng thái lần khám bệnh; 1 chờ khám; 2 đang khám, 3 đã khám, 4 kết thúc bắt buộc, 5 chuyển phòng khám, 6 chuyển viện, 7 nhập viện nội trú từ ngoại trú",
      "fieldType": "Integer"
    },
    {
      "fieldName": "thoiGianKetThucKham",
      "javadoc": "Thời gian kết thúc khám",
      "fieldType": "LocalDate"
    },
    {
      "fieldName": "phongIdChuyenTu",
      "javadoc": "Mã phòng chuyển từ",
      "fieldType": "Long"
    },
    {
      "fieldName": "thoiGianKhamBenh",
      "javadoc": "Thời gian khám bệnh",
      "fieldType": "LocalDate"
    },
    {
      "fieldName": "yLenh",
      "javadoc": "Nội dung y lệnh",
      "fieldType": "String",
      "fieldValidateRules": ["maxlength"],
      "fieldValidateRulesMaxlength": "255"
    },
    {
      "fieldName": "loaiYLenh",
      "javadoc": "Loại y lệnh: 0: Bình thường. 1: Tây y: 2 Đông Y",
      "fieldType": "Integer"
    },
    {
      "fieldName": "chanDoan",
      "javadoc": "Chẩn đoán",
      "fieldType": "String",
      "fieldValidateRules": ["maxlength"],
      "fieldValidateRulesMaxlength": "255"
    },
    {
      "fieldName": "loaiChanDoan",
      "javadoc": "Loại chẩn đoán: 0: Bình thường. 1: Tây y: 2 Đông Y",
      "fieldType": "Integer"
    },
    {
      "fieldName": "nam",
      "fieldType": "Integer",
      "fieldValidateRules": ["required"]
    }
  ],
  "relationships": [
    {
      "relationshipType": "many-to-one",
      "otherEntityName": "thongTinKhoa",
      "otherEntityRelationshipName": "thongTinKhamBenh",
      "relationshipValidateRules": "required",
      "relationshipName": "bakb",
      "otherEntityField": "id"
    },
    {
      "relationshipType": "many-to-one",
      "otherEntityName": "thongTinKhoa",
      "otherEntityRelationshipName": "thongTinKhamBenh",
      "relationshipValidateRules": "required",
      "relationshipName": "donVi",
      "otherEntityField": "id"
    },
    {
      "relationshipType": "many-to-one",
      "otherEntityName": "thongTinKhoa",
      "otherEntityRelationshipName": "thongTinKhamBenh",
      "relationshipValidateRules": "required",
      "relationshipName": "benhNhan",
      "otherEntityField": "id"
    },
    {
      "relationshipType": "many-to-one",
      "otherEntityName": "thongTinKhoa",
      "otherEntityRelationshipName": "thongTinKhamBenh",
      "relationshipValidateRules": "required",
      "relationshipName": "dotDieuTri",
      "otherEntityField": "id"
    },
    {
      "relationshipType": "many-to-one",
      "otherEntityName": "thongTinKhoa",
      "otherEntityRelationshipName": "thongTinKhamBenh",
      "relationshipValidateRules": "required",
      "relationshipName": "thongTinKhoa",
      "otherEntityField": "id"
    },
    {
      "relationshipType": "many-to-one",
      "otherEntityName": "nhanVien",
      "otherEntityRelationshipName": "thongTinKhamBenh",
      "javadoc": "Mã nhân viên",
      "relationshipName": "nhanVien",
      "otherEntityField": "id"
    },
    {
      "relationshipType": "many-to-one",
      "otherEntityName": "huongDieuTri",
      "otherEntityRelationshipName": "thongTinKhamBenh",
      "javadoc": "Mã hướng điều trị",
      "relationshipName": "huongDieuTri",
      "otherEntityField": "id"
    },
    {
      "relationshipType": "many-to-one",
      "otherEntityName": "phong",
      "otherEntityRelationshipName": "thongTinKhamBenh",
      "relationshipValidateRules": "required",
      "javadoc": "Mã phòng",
      "relationshipName": "phong",
      "otherEntityField": "id"
    }
  ],
  "changelogDate": "20200506072600",
  "entityTableName": "thong_tin_kham_benh",
  "dto": "mapstruct",
  "pagination": "pagination",
  "service": "serviceImpl",
  "jpaMetamodelFiltering": true,
  "fluentMethods": true,
  "readOnly": false,
  "embedded": false,
  "clientRootFolder": "khamchuabenh",
  "applications": "*",
  "microserviceName": "khamchuabenh"
}
