{
  "name": "ThongTinKhoa",
  "fields": [
    {
      "fieldName": "thoiGianNhanBenh",
      "javadoc": "Thời gian Khoa nhận bệnh",
      "fieldType": "LocalDate"
    },
    {
      "fieldName": "thoiGianChuyenKhoa",
      "javadoc": "Thời gian chuyển bệnh nhân chuyển sang Khoa khác",
      "fieldType": "LocalDate"
    },
    {
      "fieldName": "khoaId",
      "javadoc": "Mã Khoa phòng hiện tại",
      "fieldType": "Integer"
    },
    {
      "fieldName": "khoaChuyenDen",
      "javadoc": "khoaChuyenDen Mã khoa chuyển bệnh nhân đến",
      "fieldType": "Integer"
    },
    {
      "fieldName": "khoaChuyenDi",
      "javadoc": "khoaChuyenDi Mã khoa chuyển đi",
      "fieldType": "Integer"
    },
    {
      "fieldName": "nhanVienNhanBenh",
      "javadoc": "nhanVienNhanBenh nhân viên nhận bệnh",
      "fieldType": "Integer"
    },
    {
      "fieldName": "nhanVienChuyenKhoa",
      "javadoc": "nhanVienChuyenKhoa",
      "fieldType": "Integer"
    },
    {
      "fieldName": "soNgay",
      "javadoc": "soNgay: số ngày nằm viện trong khoa",
      "fieldType": "BigDecimal"
    },
    {
      "fieldName": "trangThai",
      "javadoc": "trangThai:\\n0: mới vào khoa, chờ khám;\\n1: điều trị, khám bệnh có giường;\\n2: điều trị, khám bệnh không giường;\\n3: xuất viện, hoàn tất khám;\\n4: Chuyển khoa phòng khám\\n5: Chuyển viện, chuyển tuyến;\\n6: Nhập viện,\\n7: Tử vong\\n8: Kết thúc đợt ĐT, thêm đợt ĐT mới;",
      "fieldType": "Integer"
    },
    {
      "fieldName": "nam",
      "fieldType": "Integer",
      "fieldValidateRules": ["required"]
    }
  ],
  "relationships": [
    {
      "relationshipType": "many-to-one",
      "otherEntityName": "dotDieuTri",
      "otherEntityRelationshipName": "thongTinKhoa",
      "relationshipValidateRules": "required",
      "relationshipName": "bakb",
      "otherEntityField": "id"
    },
    {
      "relationshipType": "many-to-one",
      "otherEntityName": "dotDieuTri",
      "otherEntityRelationshipName": "thongTinKhoa",
      "relationshipValidateRules": "required",
      "relationshipName": "donVi",
      "otherEntityField": "id"
    },
    {
      "relationshipType": "many-to-one",
      "otherEntityName": "dotDieuTri",
      "otherEntityRelationshipName": "thongTinKhoa",
      "relationshipValidateRules": "required",
      "relationshipName": "benhNhan",
      "otherEntityField": "id"
    },
    {
      "relationshipType": "many-to-one",
      "otherEntityName": "dotDieuTri",
      "otherEntityRelationshipName": "thongTinKhoa",
      "relationshipValidateRules": "required",
      "relationshipName": "dotDieuTri",
      "otherEntityField": "id"
    }
  ],
  "changelogDate": "20200506034600",
  "javadoc": "The ThongTinKhoa entity.",
  "entityTableName": "thong_tin_khoa",
  "dto": "mapstruct",
  "pagination": "pagination",
  "service": "serviceImpl",
  "jpaMetamodelFiltering": true,
  "fluentMethods": true,
  "readOnly": false,
  "embedded": false,
  "clientRootFolder": "khamchuabenh",
  "applications": "*",
  "microserviceName": "khamchuabenh"
}
