{
  "name": "ThongTinBhxh",
  "fields": [
    {
      "fieldName": "dvtt",
      "javadoc": "Mã đơn vị trực thuộc",
      "fieldType": "String",
      "fieldValidateRules": ["required", "maxlength"],
      "fieldValidateRulesMaxlength": "10"
    },
    {
      "fieldName": "enabled",
      "javadoc": "Trạng thái có hiệu lực: 1: Có hiệu lực: 0: Không có hiệu lực",
      "fieldType": "Boolean",
      "fieldValidateRules": ["required"]
    },
    {
      "fieldName": "ngayApDungBhyt",
      "javadoc": "Ngày áp dụng BHXH",
      "fieldType": "LocalDate",
      "fieldValidateRules": ["required"]
    },
    {
      "fieldName": "ten",
      "javadoc": "Tên đơn vị theo BHXH",
      "fieldType": "String",
      "fieldValidateRules": ["required", "maxlength"],
      "fieldValidateRulesMaxlength": "500"
    }
  ],
  "relationships": [
    {
      "relationshipType": "many-to-one",
      "otherEntityName": "donVi",
      "otherEntityRelationshipName": "thongTinBhxh",
      "relationshipValidateRules": "required",
      "javadoc": "Mã đơn vị",
      "relationshipName": "donVi",
      "otherEntityField": "id"
    }
  ],
  "changelogDate": "20200506072500",
  "entityTableName": "thong_tin_bhxh",
  "dto": "mapstruct",
  "pagination": "pagination",
  "service": "serviceImpl",
  "jpaMetamodelFiltering": true,
  "fluentMethods": true,
  "readOnly": false,
  "embedded": false,
  "clientRootFolder": "khamchuabenh",
  "applications": ["khamchuabenh"],
  "microserviceName": "khamchuabenh"
}
