{
  "name": "TPhongNhanVien",
  "fields": [
    {
      "fieldName": "enabled",
      "fieldType": "Boolean",
      "fieldValidateRules": ["required"]
    }
  ],
  "relationships": [
    {
      "relationshipType": "many-to-one",
      "otherEntityName": "phong",
      "otherEntityRelationshipName": "tPhongNhanVien",
      "relationshipValidateRules": "required",
      "relationshipName": "phong",
      "otherEntityField": "id"
    },
    {
      "relationshipType": "many-to-one",
      "otherEntityName": "nhanVien",
      "otherEntityRelationshipName": "tPhongNhanVien",
      "relationshipValidateRules": "required",
      "relationshipName": "nhanVien",
      "otherEntityField": "id"
    }
  ],
  "changelogDate": "20200506072300",
  "entityTableName": "t_phong_nhan_vien",
  "dto": "mapstruct",
  "pagination": "pagination",
  "service": "serviceImpl",
  "jpaMetamodelFiltering": true,
  "fluentMethods": true,
  "readOnly": false,
  "embedded": false,
  "clientRootFolder": "khamchuabenh",
  "applications": ["khamchuabenh"],
  "microserviceName": "khamchuabenh"
}
