{
  "name": "UserExtra",
  "fields": [
    {
      "fieldName": "enabled",
      "javadoc": "Trạng thái: 1: Còn hiệu lực. 0 Hết hiệu lực",
      "fieldType": "Boolean",
      "fieldValidateRules": ["required"]
    },
    {
      "fieldName": "username",
      "javadoc": "username",
      "fieldType": "String",
      "fieldValidateRules": ["required", "maxlength"],
      "fieldValidateRulesMaxlength": "100"
    }
  ],
  "relationships": [
    {
      "relationshipType": "many-to-one",
      "otherEntityName": "user",
      "otherEntityRelationshipName": "userExtra",
      "relationshipValidateRules": "required",
      "javadoc": "uuid",
      "relationshipName": "user",
      "otherEntityField": "id"
    },
    {
      "relationshipType": "many-to-one",
      "otherEntityName": "userType",
      "otherEntityRelationshipName": "userExtra",
      "relationshipName": "userType",
      "otherEntityField": "id"
    },
    {
      "relationshipType": "many-to-many",
      "otherEntityName": "menu",
      "otherEntityRelationshipName": "user",
      "relationshipName": "menu",
      "otherEntityField": "id",
      "ownerSide": false
    }
  ],
  "changelogDate": "20200506072800",
  "entityTableName": "user_extra",
  "dto": "mapstruct",
  "pagination": "pagination",
  "service": "serviceImpl",
  "jpaMetamodelFiltering": true,
  "fluentMethods": true,
  "readOnly": false,
  "embedded": false,
  "clientRootFolder": "khamchuabenh",
  "applications": ["khamchuabenh"],
  "microserviceName": "khamchuabenh"
}
