{
  "name": "UserType",
  "fields": [
    {
      "fieldName": "moTa",
      "javadoc": "Mô tả loại user",
      "fieldType": "String",
      "fieldValidateRules": ["maxlength"],
      "fieldValidateRulesMaxlength": "255"
    }
  ],
  "relationships": [],
  "changelogDate": "20200506072900",
  "entityTableName": "user_type",
  "dto": "mapstruct",
  "pagination": "pagination",
  "service": "serviceImpl",
  "jpaMetamodelFiltering": true,
  "fluentMethods": true,
  "readOnly": false,
  "embedded": false,
  "clientRootFolder": "khamchuabenh",
  "applications": ["khamchuabenh"],
  "microserviceName": "khamchuabenh"
}
