{
  "fluentMethods": true,
  "clientRootFolder": "khamchuabenh",
  "fields": [
    {
      "fieldName": "maBaoCaoBhxh",
      "javadoc": "mã báo cáo Bảo Hiểm Xã hội",
      "fieldType": "String",
      "fieldValidateRules": [
        "maxlength"
      ],
      "fieldValidateRulesMaxlength": "200"
    },
    {
      "fieldName": "maBaoCaoBhyt",
      "javadoc": "mã báo cáo Bảo Hiểm Y tế",
      "fieldType": "String",
      "fieldValidateRules": [
        "maxlength"
      ],
      "fieldValidateRulesMaxlength": "30"
    },
    {
      "fieldName": "ngayApDung",
      "javadoc": "Ngày Áp dụng",
      "fieldType": "LocalDate",
      "fieldValidateRules": [
        "required"
      ]
    },
    {
      "fieldName": "soCongVanBhxh",
      "javadoc": "Số công văn Bảo hiểm xã hội",
      "fieldType": "String",
      "fieldValidateRules": [
        "maxlength"
      ],
      "fieldValidateRulesMaxlength": "200"
    },
    {
      "fieldName": "soQuyetDinh",
      "javadoc": "Số quyết định",
      "fieldType": "String",
      "fieldValidateRules": [
        "maxlength"
      ],
      "fieldValidateRulesMaxlength": "100"
    },
    {
      "fieldName": "tenBaoCaoBhxh",
      "javadoc": "Tên báo cáo Bảo hiểm xã hội",
      "fieldType": "String",
      "fieldValidateRules": [
        "maxlength"
      ],
      "fieldValidateRulesMaxlength": "500"
    },
    {
      "fieldName": "tenDichVuKhongBhyt",
      "javadoc": "Tên dịch vụ không Bảo hiểm y tế",
      "fieldType": "String",
      "fieldValidateRules": [
        "maxlength"
      ],
      "fieldValidateRulesMaxlength": "500"
    },
    {
      "fieldName": "tienBenhNhanChi",
      "javadoc": "Tiền bệnh nhân chi",
      "fieldType": "BigDecimal"
    },
    {
      "fieldName": "tienBhxhChi",
      "javadoc": "Tiền bảo hiểm xã hội chi",
      "fieldType": "BigDecimal"
    },
    {
      "fieldName": "tienNgoaiBhyt",
      "javadoc": "Tiền ngoài bhyt",
      "fieldType": "BigDecimal"
    },
    {
      "fieldName": "tongTienThanhToan",
      "javadoc": "Tổng tiền thanh toán",
      "fieldType": "BigDecimal"
    },
    {
      "fieldName": "tyLeBhxhThanhToan",
      "javadoc": "Tỷ lệ Bảo hiểm xã hội thanh toán",
      "fieldType": "Integer"
    },
    {
      "fieldName": "giaBhyt",
      "javadoc": "Giá Bảo hiểm y tế",
      "fieldType": "BigDecimal",
      "fieldValidateRules": [
        "required"
      ]
    },
    {
      "fieldName": "giaKhongBhyt",
      "javadoc": "Giá không bảo hiểm y tế",
      "fieldType": "BigDecimal",
      "fieldValidateRules": [
        "required"
      ]
    },
    {
      "fieldName": "doiTuongDacBiet",
      "javadoc": "Đối tượng đặc biệt có bảng giá khác. 0: Bình thường .1 được quy định",
      "fieldType": "Boolean"
    },
    {
      "fieldName": "nguonChi",
      "javadoc": "Nguồn chi bảo hiểm cho bệnh nhân: 1: BHYT .2: Nhà nước 3. Khác",
      "fieldType": "Integer"
    },
    {
      "fieldName": "enable",
      "javadoc": "Trạng thái có hiệu lực: 1: Có hiệu lực. 0: không có hiệu lực",
      "fieldType": "Boolean"
    }
  ],
  "relationships": [
    {
      "relationshipType": "many-to-one",
      "otherEntityName": "dotGiaDichVuBhxh",
      "otherEntityRelationshipName": "xnApDung",
      "relationshipValidateRules": "required",
      "relationshipName": "dotGia",
      "otherEntityField": "id"
    },
    {
      "relationshipType": "many-to-one",
      "otherEntityName": "xetNghiem",
      "otherEntityRelationshipName": "xnApDung",
      "relationshipValidateRules": "required",
      "relationshipName": "XN",
      "otherEntityField": "id"
    }
  ],
  "changelogDate": "20200506034700",
  "entityTableName": "xet_nghiem_ap_dung",
  "dto": "mapstruct",
  "pagination": "pagination",
  "service": "serviceImpl",
  "jpaMetamodelFiltering": true,
  "fluentMethods": true,
  "readOnly": false,
  "embedded": false,
  "clientRootFolder": "khamchuabenh",
  "applications": [
    "khamchuabenh"
  ],
  "microserviceName": "khamchuabenh"
}
